<?xml version="1.0" encoding="UTF-8"?>
<session version="1.0">
<refactoring comment="Delete resource &apos;StudentWebApp&apos;" deleteContents="true" description="Delete resource &apos;StudentWebApp&apos;" element1="/StudentWebApp" flags="7" id="org.eclipse.ltk.core.refactoring.delete.resources" resources="1" stamp="1700677527827"/>
</session>